#	Note	Staff (0)	Sword (1)	Dagger (2)	Axe (3)	Spear (4)	Bow (5)	Mace (6)	Blaster (7)	Shield (8)	Leather (9)	Chain (10)	Plate (11)	Fire Magic (12)	Air Magic (13)	Water Magic (14)	Earth Magic (15)	Spirit Magic (16)	Mind Magic (17)	Body Magic (18)	Light Magic (19)	Dark Magic (20)	Dark Elf Ability (21)	Vampire Ability (22)	Dragon Ability (23)	ID Item (24)	Merchant (25)	Repair Item (26)	Body Building (27)	Meditation (28)	Perception (29)	Regeneration (30)	Disarm Trap (31)	Dodging (32)	Unarmed (33)	ID Monster (34)	Armsmaster (35)	Stealing (36)	Alchemy (37)	Learning (38)
0	Human	-	-	-	-	-	-	-	-	-	-	-	-	-	-	-	-	-	-	-	-	-	-	-	-	-	-	-	-	-	-	-	-	-	-	-	-	-	-	B/1/4/0/1
1	MatureHuman	-	-	-	-	-	-	-	-	-	-	-	-	-	-	-	-	-	-	-	-	-	-	-	-	-	-	-	-	-	-	-	-	-	-	-	-	-	-	B/1/4/0/1
2	UndeadHuman	-	-	-	-	-	-	-	-	-	-	-	-	-	-	-	-	-	-	-	-	-	-	-	-	-	-	0/-2/3/0/0	-	-	-	B/0/4/0/1	-	-	-	-	-	-	-	-
3	MatureUndeadHuman	-	-	-	-	-	-	-	-	-	-	-	-	-	-	-	-	-	-	-	-	-	-	-	-	-	-	0/-2/3/0/0	-	-	-	E/0/4/0/1	-	-	-	-	-	-	-	-
4	VampireHuman	-	-	-	-	-	-	-	-	-	-	-	-	-	-	-	-	-	-	-	-	-	-	E/0/4/0/1	-	-	-	-	-	E/0/4/0/0	-	B/0/4/0/1	-	-	-	-	-	-	-	-
5	MatureVampireHuman	-	-	-	-	-	-	-	-	-	-	-	-	-	-	-	-	-	-	-	-	-	-	E/0/4/0/1	-	-	-	-	-	E/0/4/0/0	-	B/0/4/0/1	-	-	-	-	-	-	-	-
6	ZombieHuman	-	-	-	-	-	-	-	-	-	-	-	-	-	-	-	-	-	-	-	-	-	-	-	-	-	-	-	-	-	-	B/0/4/0/1	-	-	-	-	-	-	-	-
7	ZombieUndeadHuman	-	-	-	-	-	-	-	-	-	-	-	-	-	-	-	-	-	-	-	-	-	-	-	-	-	-	-	-	-	-	B/0/4/0/1	-	-	-	-	-	-	-	-
8	GhostHuman	-	-	-	-	-	-	-	-	-	-	-	-	-	-	-	-	-	-	-	-	-	-	-	-	-	-	-	-	-	-	-	-	-	-	-	-	-	-	-
9	MatureGhostHuman	-	-	-	-	-	-	-	-	-	-	-	-	-	-	-	-	-	-	-	-	-	-	-	-	-	-	-	-	-	-	-	-	-	-	-	-	-	-	-
10	DarkElf	-	-	-	-	-	-	-	-	-	-	-	-	-	-	-	-	-	-	-	-	-	E/0/4/0/1	-	-	-	0/1/4/0/0	-	-	E/0/4/0/0	-	-	-	-	-	-	-	-	-	-
11	MatureDarkElf	-	-	-	-	-	-	-	-	-	-	-	-	-	-	-	-	-	-	-	-	-	E/0/4/0/1	-	-	-	0/1/4/0/0	-	-	E/0/4/0/0	-	-	-	-	-	-	-	-	-	-
12	UndeadDarkElf	-	-	-	-	-	-	-	-	-	-	-	-	-	-	-	-	-	-	-	-	-	-	-	-	-	-	0/-2/3/0/0	-	-	-	B/0/4/0/1	-	-	-	-	-	-	-	-
13	MatureUndeadDarkElf	-	-	-	-	-	-	-	-	-	-	-	-	-	-	-	-	-	-	-	-	-	-	-	-	-	-	0/-2/3/0/0	-	-	-	E/0/4/0/1	-	-	-	-	-	-	-	-
14	VampireDarkElf	-	-	-	-	-	-	-	-	-	-	-	-	-	-	-	-	-	-	-	-	-	-	E/0/4/0/1	-	-	-	-	-	E/0/4/0/0	-	-	-	-	-	-	-	-	-	-
15	MatureVampireDarkElf	-	-	-	-	-	-	-	-	-	-	-	-	-	-	-	-	-	-	-	-	-	-	E/0/4/0/1	-	-	-	-	-	E/0/4/0/0	-	-	-	-	-	-	-	-	-	-
16	ZombieDarkElf	-	-	-	-	-	-	-	-	-	-	-	-	-	-	-	-	-	-	-	-	-	-	-	-	-	-	-	-	-	-	B/0/4/0/1	-	-	-	-	-	-	-	-
17	MatureZombieDarkElf	-	-	-	-	-	-	-	-	-	-	-	-	-	-	-	-	-	-	-	-	-	-	-	-	-	-	-	-	-	-	B/0/4/0/1	-	-	-	-	-	-	-	-
18	GhostDarkElf	-	-	-	-	-	-	-	-	-	-	-	-	-	-	-	-	-	-	-	-	-	-	-	-	-	-	-	-	-	-	-	-	-	-	-	-	-	-	-
19	MatureGhostDarkElf	-	-	-	-	-	-	-	-	-	-	-	-	-	-	-	-	-	-	-	-	-	-	-	-	-	-	-	-	-	-	-	-	-	-	-	-	-	-	-
20	Minotaur	-	-	-	E/1/4/0/1	-	-	-	-	-	-	-	E/1/4/0/0	-	-	-	-	-	-	-	-	-	-	-	-	-	-	-	0/1/4/0/0	-	-	-	-	-	-	-	-	-	-	-
21	MatureMinotaur	-	-	-	E/1/4/0/1	-	-	-	-	-	-	-	E/1/4/0/0	-	-	-	-	-	-	-	-	-	-	-	-	-	-	-	0/1/4/0/0	-	-	-	-	-	-	-	-	-	-	-
22	UndeadMinotaur	-	-	-	-	-	-	-	-	-	-	-	-	-	-	-	-	-	-	-	-	-	-	-	-	-	-	0/-2/3/0/0	-	-	-	B/0/4/0/1	-	-	-	-	-	-	-	-
23	MatureUndeadMinotaur	-	-	-	-	-	-	-	-	-	-	-	-	-	-	-	-	-	-	-	-	-	-	-	-	-	-	0/-2/3/0/0	-	-	-	E/0/4/0/1	-	-	-	-	-	-	-	-
24	VampireMinotaur	-	-	-	-	-	-	-	-	-	-	-	-	-	-	-	-	-	-	-	-	-	-	-	-	-	-	-	-	-	-	-	-	-	-	-	-	-	-	-
25	MatureVampireMinotaur	-	-	-	-	-	-	-	-	-	-	-	-	-	-	-	-	-	-	-	-	-	-	-	-	-	-	-	-	-	-	-	-	-	-	-	-	-	-	-
26	ZombieMinotaur	-	-	-	-	-	-	-	-	-	-	-	-	-	-	-	-	-	-	-	-	-	-	-	-	-	-	-	-	-	-	B/0/4/0/1	-	-	-	-	-	-	-	-
27	MatureZombieMinotaur	-	-	-	-	-	-	-	-	-	-	-	-	-	-	-	-	-	-	-	-	-	-	-	-	-	-	-	-	-	-	B/0/4/0/1	-	-	-	-	-	-	-	-
28	GhostMinotaur	-	-	-	-	-	-	-	-	-	-	-	-	-	-	-	-	-	-	-	-	-	-	-	-	-	-	-	-	-	-	-	-	-	-	-	-	-	-	-
29	MatureGhostMinotaur	-	-	-	-	-	-	-	-	-	-	-	-	-	-	-	-	-	-	-	-	-	-	-	-	-	-	-	-	-	-	-	-	-	-	-	-	-	-	-
30	Troll	-	-	-	-	-	-	-	-	-	-	-	-	-	-	-	-	-	-	-	-	-	-	-	-	-	-	-	-	-	-	B/0/4/0/1	-	-	-	-	-	-	-	-
31	MatureTroll	-	-	-	-	-	-	-	-	-	-	-	-	-	-	-	-	-	-	-	-	-	-	-	-	-	-	-	-	-	-	B/0/4/0/1	-	-	-	-	-	-	-	-
32	UndeadTroll	-	-	-	-	-	-	-	-	-	-	-	-	-	-	-	-	-	-	-	-	-	-	-	-	-	-	-	-	-	-	-	-	-	-	-	-	-	-	-
33	MatureUndeadTroll	-	-	-	-	-	-	-	-	-	-	-	-	-	-	-	-	-	-	-	-	-	-	-	-	-	-	-	-	-	-	-	-	-	-	-	-	-	-	-
34	VampireTroll	-	-	-	-	-	-	-	-	-	-	-	-	-	-	-	-	-	-	-	-	-	-	-	-	-	-	-	-	-	-	-	-	-	-	-	-	-	-	-
35	MatureVampireTroll	-	-	-	-	-	-	-	-	-	-	-	-	-	-	-	-	-	-	-	-	-	-	-	-	-	-	-	-	-	-	-	-	-	-	-	-	-	-	-
36	ZombieTroll	-	-	-	-	-	-	-	-	-	-	-	-	-	-	-	-	-	-	-	-	-	-	-	-	-	-	-	-	-	-	-	-	-	-	-	-	-	-	-
37	MatureZombieTroll	-	-	-	-	-	-	-	-	-	-	-	-	-	-	-	-	-	-	-	-	-	-	-	-	-	-	-	-	-	-	-	-	-	-	-	-	-	-	-
38	GhostTroll	-	-	-	-	-	-	-	-	-	-	-	-	-	-	-	-	-	-	-	-	-	-	-	-	-	-	-	-	-	-	-	-	-	-	-	-	-	-	-
39	MatureGhostTroll	-	-	-	-	-	-	-	-	-	-	-	-	-	-	-	-	-	-	-	-	-	-	-	-	-	-	-	-	-	-	-	-	-	-	-	-	-	-	-
40	Dragon	-	-	-	-	-	-	-	-	-	-	-	-	-	-	-	-	-	-	-	-	-	-	-	E/0/4/0/1	-	-	-	-	E/0/4/0/0	-	B/0/4/0/1	-	-	-	0/1/4/0/0	-	-	-	-
41	MatureDragon	-	-	-	-	-	-	-	-	-	-	-	-	-	-	-	-	-	-	-	-	-	-	-	E/0/4/0/1	-	-	-	-	E/0/4/0/0	-	B/0/4/0/1	-	-	-	0/1/4/0/0	-	-	-	-
42	UndeadDragon	-	-	-	-	-	-	-	-	-	-	-	-	-	-	-	-	-	-	-	-	-	-	-	E/0/4/0/1	-	-	-	-	E/0/4/0/0	-	B/0/4/0/1	-	-	-	-	-	-	-	-
43	MatureUndeadDragon	-	-	-	-	-	-	-	-	-	-	-	-	-	-	-	-	-	-	-	-	-	-	-	E/0/4/0/1	-	-	-	-	E/0/4/0/0	-	E/0/4/0/1	-	-	-	-	-	-	-	-
44	VampireDragon	-	-	-	-	-	-	-	-	-	-	-	-	-	-	-	-	-	-	-	-	-	-	-	-	-	-	-	-	-	-	-	-	-	-	-	-	-	-	-
45	MatureVampireDragon	-	-	-	-	-	-	-	-	-	-	-	-	-	-	-	-	-	-	-	-	-	-	-	-	-	-	-	-	-	-	-	-	-	-	-	-	-	-	-
46	ZombieDragon	-	-	-	-	-	-	-	-	-	-	-	-	-	-	-	-	-	-	-	-	-	-	-	-	-	-	-	-	E/0/4/0/0	-	B/0/4/0/1	-	-	-	-	-	-	-	-
47	MatureZombieDragon	-	-	-	-	-	-	-	-	-	-	-	-	-	-	-	-	-	-	-	-	-	-	-	-	-	-	-	-	E/0/4/0/0	-	B/0/4/0/1	-	-	-	-	-	-	-	-
48	GhostDragon	-	-	-	-	-	-	-	-	-	-	-	-	-	-	-	-	-	-	-	-	-	-	-	E/0/4/0/1	-	-	-	-	E/0/4/0/0	-	B/0/4/0/1	-	-	-	-	-	-	-	-
49	MatureGhostDragon	-	-	-	-	-	-	-	-	-	-	-	-	-	-	-	-	-	-	-	-	-	-	-	E/0/4/0/1	-	-	-	-	E/0/4/0/0	-	B/0/4/0/1	-	-	-	-	-	-	-	-
50	Elf	-	-	-	-	-	-	-	-	-	-	-	-	-	-	-	-	-	-	-	-	-	B/0/4/0/1	-	-	-	-	-	-	E/1/4/0/0	-	-	-	-	-	-	-	-	-	-
51	MatureElf	-	-	-	-	-	-	-	-	-	-	-	-	-	-	-	-	-	-	-	-	-	B/0/4/0/1	-	-	-	-	-	-	E/1/4/0/0	-	-	-	-	-	-	-	-	-	-
52	UndeadElf	-	-	-	-	-	-	-	-	-	-	-	-	-	-	-	-	-	-	-	-	-	-	-	-	-	-	0/-2/3/0/0	-	-	-	B/0/4/0/1	-	-	-	-	-	-	-	-
53	MatureUndeadElf	-	-	-	-	-	-	-	-	-	-	-	-	-	-	-	-	-	-	-	-	-	-	-	-	-	-	0/-2/3/0/0	-	-	-	E/0/4/0/1	-	-	-	-	-	-	-	-
54	VampireElf	-	-	-	-	-	-	-	-	-	-	-	-	-	-	-	-	-	-	-	-	-	-	E/0/4/0/1	-	-	-	-	-	-	-	-	-	-	-	-	-	-	-	-
55	MatureVampireElf	-	-	-	-	-	-	-	-	-	-	-	-	-	-	-	-	-	-	-	-	-	-	E/0/4/0/1	-	-	-	-	-	-	-	-	-	-	-	-	-	-	-	-
56	ZombieElf	-	-	-	-	-	-	-	-	-	-	-	-	-	-	-	-	-	-	-	-	-	-	-	-	-	-	-	-	-	-	B/0/4/0/1	-	-	-	-	-	-	-	-
57	MatureZombieElf	-	-	-	-	-	-	-	-	-	-	-	-	-	-	-	-	-	-	-	-	-	-	-	-	-	-	-	-	-	-	B/0/4/0/1	-	-	-	-	-	-	-	-
58	GhostElf	-	-	-	-	-	-	-	-	-	-	-	-	-	-	-	-	-	-	-	-	-	-	-	-	-	-	-	-	-	-	-	-	-	-	-	-	-	-	-
59	MatureGhostElf	-	-	-	-	-	-	-	-	-	-	-	-	-	-	-	-	-	-	-	-	-	-	-	-	-	-	-	-	-	-	-	-	-	-	-	-	-	-	-
60	Goblin	-	-	-	-	-	-	-	-	-	-	-	-	-	-	-	-	-	-	-	-	-	-	-	-	-	-	-	-	-	B/0/4/0/1	-	-	-	-	-	-	-	-	-
61	MatureGoblin	-	-	-	-	-	-	-	-	-	-	-	-	-	-	-	-	-	-	-	-	-	-	-	-	-	-	-	-	-	B/0/4/0/1	-	-	-	-	-	-	-	-	-
62	UndeadGoblin	-	-	-	-	-	-	-	-	-	-	-	-	-	-	-	-	-	-	-	-	-	-	-	-	-	-	0/-2/3/0/0	-	-	-	B/0/4/0/1	-	-	-	-	-	-	-	-
63	MatureUndeadGoblin	-	-	-	-	-	-	-	-	-	-	-	-	-	-	-	-	-	-	-	-	-	-	-	-	-	-	0/-2/3/0/0	-	-	-	E/0/4/0/1	-	-	-	-	-	-	-	-
64	VampireGoblin	-	-	-	-	-	-	-	-	-	-	-	-	-	-	-	-	-	-	-	-	-	-	-	-	-	-	-	-	-	-	-	-	-	-	-	-	-	-	-
65	MatureVampireGoblin	-	-	-	-	-	-	-	-	-	-	-	-	-	-	-	-	-	-	-	-	-	-	-	-	-	-	-	-	-	-	-	-	-	-	-	-	-	-	-
66	ZombieGoblin	-	-	-	-	-	-	-	-	-	-	-	-	-	-	-	-	-	-	-	-	-	-	-	-	-	-	-	-	-	-	B/0/4/0/1	-	-	-	-	-	-	-	-
67	MatureZombieGoblin	-	-	-	-	-	-	-	-	-	-	-	-	-	-	-	-	-	-	-	-	-	-	-	-	-	-	-	-	-	-	B/0/4/0/1	-	-	-	-	-	-	-	-
68	GhostGoblin	-	-	-	-	-	-	-	-	-	-	-	-	-	-	-	-	-	-	-	-	-	-	-	-	-	-	-	-	-	-	-	-	-	-	-	-	-	-	-
69	MatureGhostGoblin	-	-	-	-	-	-	-	-	-	-	-	-	-	-	-	-	-	-	-	-	-	-	-	-	-	-	-	-	-	-	-	-	-	-	-	-	-	-	-
70	Dwarf	-	-	-	E/1/4/0/0	-	-	-	-	-	-	-	-	-	-	-	-	-	-	-	-	-	-	-	-	-	-	-	-	-	-	-	-	-	-	-	-	-	-	-
71	MatureDwarf	-	-	-	E/1/4/0/0	-	-	-	-	-	-	-	-	-	-	-	-	-	-	-	-	-	-	-	-	-	-	-	-	-	-	-	-	-	-	-	-	-	-	-
72	UndeadDwarf	-	-	-	-	-	-	-	-	-	-	-	-	-	-	-	-	-	-	-	-	-	-	-	-	-	-	-	-	-	-	B/0/4/0/1	-	-	-	-	-	-	-	-
73	MatureUndeadDwarf	-	-	-	-	-	-	-	-	-	-	-	-	-	-	-	-	-	-	-	-	-	-	-	-	-	-	-	-	-	-	E/0/4/0/1	-	-	-	-	-	-	-	-
74	VampireDwarf	-	-	-	-	-	-	-	-	-	-	-	-	-	-	-	-	-	-	-	-	-	-	-	-	-	-	-	-	-	-	-	-	-	-	-	-	-	-	-
75	MatureVampireDwarf	-	-	-	-	-	-	-	-	-	-	-	-	-	-	-	-	-	-	-	-	-	-	-	-	-	-	-	-	-	-	-	-	-	-	-	-	-	-	-
76	ZombieDwarf	-	-	-	-	-	-	-	-	-	-	-	-	-	-	-	-	-	-	-	-	-	-	-	-	-	-	-	-	-	-	B/0/4/0/1	-	-	-	-	-	-	-	-
77	MatureZombieDwarf	-	-	-	-	-	-	-	-	-	-	-	-	-	-	-	-	-	-	-	-	-	-	-	-	-	-	-	-	-	-	B/0/4/0/1	-	-	-	-	-	-	-	-
78	GhostDwarf	-	-	-	-	-	-	-	-	-	-	-	-	-	-	-	-	-	-	-	-	-	-	-	-	-	-	-	-	-	-	-	-	-	-	-	-	-	-	-
79	MatureGhostDwarf	-	-	-	-	-	-	-	-	-	-	-	-	-	-	-	-	-	-	-	-	-	-	-	-	-	-	-	-	-	-	-	-	-	-	-	-	-	-	-
	Class specific skills:
# Race	RaceFamily	RaceKind	Class	ClassKind	ClassStep	Skill	Value
-1	-1	-1	-1	2	-1	3	0