#	Continent	RaceKind	RaceFamily	Race	Alignment	ClassKind	ClassStep	Class	RaceName	RacePlural	RaceAdj	ClassName
1	-1	-1	0	-1	-1	-1	-1	118				Master Necromancer
2	-1	-1	2	-1	-1	-1	-1	118				Master Necromancer
3	-1	-1	3	-1	-1	-1	-1	118				Master Necromancer
